{
	"textures": [
		{
			"image": "atlas_1",
			"format": "RGBA8888",
			"size": {
				"w": 2044,
				"h": 836
			},
			"scale": 1,
			"frames": [
				{
					"filename": "header",
					"rotated": false,
					"trimmed": false,
					"sourceSize": {
						"w": 724,
						"h": 137
					},
					"spriteSourceSize": {
						"x": 0,
						"y": 0,
						"w": 724,
						"h": 137
					},
					"frame": {
						"x": 1,
						"y": 1,
						"w": 724,
						"h": 137
					}
				},
				{
					"filename": "dashboard",
					"rotated": false,
					"trimmed": false,
					"sourceSize": {
						"w": 708,
						"h": 536
					},
					"spriteSourceSize": {
						"x": 0,
						"y": 0,
						"w": 708,
						"h": 536
					},
					"frame": {
						"x": 727,
						"y": 1,
						"w": 708,
						"h": 536
					}
				},
				{
					"filename": "hint2",
					"rotated": false,
					"trimmed": false,
					"sourceSize": {
						"w": 454,
						"h": 34
					},
					"spriteSourceSize": {
						"x": 0,
						"y": 0,
						"w": 454,
						"h": 34
					},
					"frame": {
						"x": 1437,
						"y": 1,
						"w": 454,
						"h": 34
					}
				},
				{
					"filename": "switch_off",
					"rotated": false,
					"trimmed": false,
					"sourceSize": {
						"w": 141,
						"h": 60
					},
					"spriteSourceSize": {
						"x": 0,
						"y": 0,
						"w": 141,
						"h": 60
					},
					"frame": {
						"x": 1893,
						"y": 1,
						"w": 141,
						"h": 60
					}
				},
				{
					"filename": "doubleChance_off",
					"rotated": false,
					"trimmed": false,
					"sourceSize": {
						"w": 418,
						"h": 91
					},
					"spriteSourceSize": {
						"x": 0,
						"y": 0,
						"w": 418,
						"h": 91
					},
					"frame": {
						"x": 1437,
						"y": 37,
						"w": 418,
						"h": 91
					}
				},
				{
					"filename": "spin_auto",
					"rotated": false,
					"trimmed": false,
					"sourceSize": {
						"w": 180,
						"h": 180
					},
					"spriteSourceSize": {
						"x": 0,
						"y": 0,
						"w": 180,
						"h": 180
					},
					"frame": {
						"x": 1857,
						"y": 63,
						"w": 180,
						"h": 180
					}
				},
				{
					"filename": "doubleChance_on",
					"rotated": false,
					"trimmed": false,
					"sourceSize": {
						"w": 418,
						"h": 91
					},
					"spriteSourceSize": {
						"x": 0,
						"y": 0,
						"w": 418,
						"h": 91
					},
					"frame": {
						"x": 1437,
						"y": 130,
						"w": 418,
						"h": 91
					}
				},
				{
					"filename": "double/0",
					"rotated": false,
					"trimmed": false,
					"sourceSize": {
						"w": 14,
						"h": 21
					},
					"spriteSourceSize": {
						"x": 0,
						"y": 0,
						"w": 14,
						"h": 21
					},
					"frame": {
						"x": 1857,
						"y": 37,
						"w": 14,
						"h": 21
					}
				},
				{
					"filename": "double/1",
					"rotated": false,
					"trimmed": false,
					"sourceSize": {
						"w": 14,
						"h": 21
					},
					"spriteSourceSize": {
						"x": 0,
						"y": 0,
						"w": 14,
						"h": 21
					},
					"frame": {
						"x": 1873,
						"y": 37,
						"w": 14,
						"h": 21
					}
				},
				{
					"filename": "tumblebox",
					"rotated": false,
					"trimmed": false,
					"sourceSize": {
						"w": 376,
						"h": 108
					},
					"spriteSourceSize": {
						"x": 0,
						"y": 0,
						"w": 376,
						"h": 108
					},
					"frame": {
						"x": 1437,
						"y": 223,
						"w": 376,
						"h": 108
					}
				},
				{
					"filename": "close",
					"rotated": false,
					"trimmed": false,
					"sourceSize": {
						"w": 40,
						"h": 40
					},
					"spriteSourceSize": {
						"x": 0,
						"y": 0,
						"w": 40,
						"h": 40
					},
					"frame": {
						"x": 1815,
						"y": 223,
						"w": 40,
						"h": 40
					}
				},
				{
					"filename": "spin_up",
					"rotated": false,
					"trimmed": false,
					"sourceSize": {
						"w": 180,
						"h": 180
					},
					"spriteSourceSize": {
						"x": 0,
						"y": 0,
						"w": 180,
						"h": 180
					},
					"frame": {
						"x": 1857,
						"y": 245,
						"w": 180,
						"h": 180
					}
				},
				{
					"filename": "walleticon",
					"rotated": false,
					"trimmed": false,
					"sourceSize": {
						"w": 39,
						"h": 38
					},
					"spriteSourceSize": {
						"x": 0,
						"y": 0,
						"w": 39,
						"h": 38
					},
					"frame": {
						"x": 1815,
						"y": 265,
						"w": 39,
						"h": 38
					}
				},
				{
					"filename": "thumb",
					"rotated": false,
					"trimmed": false,
					"sourceSize": {
						"w": 35,
						"h": 56
					},
					"spriteSourceSize": {
						"x": 0,
						"y": 0,
						"w": 35,
						"h": 56
					},
					"frame": {
						"x": 1815,
						"y": 305,
						"w": 35,
						"h": 56
					}
				},
				{
					"filename": "hint1",
					"rotated": false,
					"trimmed": false,
					"sourceSize": {
						"w": 316,
						"h": 47
					},
					"spriteSourceSize": {
						"x": 0,
						"y": 0,
						"w": 316,
						"h": 47
					},
					"frame": {
						"x": 1437,
						"y": 333,
						"w": 316,
						"h": 47
					}
				},
				{
					"filename": "setting_up",
					"rotated": false,
					"trimmed": false,
					"sourceSize": {
						"w": 98,
						"h": 98
					},
					"spriteSourceSize": {
						"x": 0,
						"y": 0,
						"w": 98,
						"h": 98
					},
					"frame": {
						"x": 1755,
						"y": 363,
						"w": 98,
						"h": 98
					}
				},
				{
					"filename": "double/12",
					"rotated": false,
					"trimmed": false,
					"sourceSize": {
						"w": 14,
						"h": 21
					},
					"spriteSourceSize": {
						"x": 0,
						"y": 0,
						"w": 14,
						"h": 21
					},
					"frame": {
						"x": 1755,
						"y": 333,
						"w": 14,
						"h": 21
					}
				},
				{
					"filename": "minus_no",
					"rotated": false,
					"trimmed": false,
					"sourceSize": {
						"w": 20,
						"h": 2
					},
					"spriteSourceSize": {
						"x": 0,
						"y": 0,
						"w": 20,
						"h": 2
					},
					"frame": {
						"x": 1755,
						"y": 356,
						"w": 20,
						"h": 2
					}
				},
				{
					"filename": "double/2",
					"rotated": false,
					"trimmed": false,
					"sourceSize": {
						"w": 14,
						"h": 21
					},
					"spriteSourceSize": {
						"x": 0,
						"y": 0,
						"w": 14,
						"h": 21
					},
					"frame": {
						"x": 1771,
						"y": 333,
						"w": 14,
						"h": 21
					}
				},
				{
					"filename": "minus_up",
					"rotated": false,
					"trimmed": false,
					"sourceSize": {
						"w": 20,
						"h": 2
					},
					"spriteSourceSize": {
						"x": 0,
						"y": 0,
						"w": 20,
						"h": 2
					},
					"frame": {
						"x": 1777,
						"y": 356,
						"w": 20,
						"h": 2
					}
				},
				{
					"filename": "double/3",
					"rotated": false,
					"trimmed": false,
					"sourceSize": {
						"w": 14,
						"h": 21
					},
					"spriteSourceSize": {
						"x": 0,
						"y": 0,
						"w": 14,
						"h": 21
					},
					"frame": {
						"x": 1799,
						"y": 333,
						"w": 14,
						"h": 21
					}
				},
				{
					"filename": "buy",
					"rotated": false,
					"trimmed": false,
					"sourceSize": {
						"w": 157,
						"h": 22
					},
					"spriteSourceSize": {
						"x": 0,
						"y": 0,
						"w": 157,
						"h": 22
					},
					"frame": {
						"x": 1855,
						"y": 427,
						"w": 157,
						"h": 22
					}
				},
				{
					"filename": "orange_number/3",
					"rotated": false,
					"trimmed": false,
					"sourceSize": {
						"w": 20,
						"h": 34
					},
					"spriteSourceSize": {
						"x": 0,
						"y": 0,
						"w": 20,
						"h": 34
					},
					"frame": {
						"x": 2014,
						"y": 427,
						"w": 20,
						"h": 34
					}
				},
				{
					"filename": "switch_on",
					"rotated": false,
					"trimmed": false,
					"sourceSize": {
						"w": 141,
						"h": 60
					},
					"spriteSourceSize": {
						"x": 0,
						"y": 0,
						"w": 141,
						"h": 60
					},
					"frame": {
						"x": 1855,
						"y": 451,
						"w": 141,
						"h": 60
					}
				},
				{
					"filename": "double/4",
					"rotated": false,
					"trimmed": false,
					"sourceSize": {
						"w": 14,
						"h": 21
					},
					"spriteSourceSize": {
						"x": 0,
						"y": 0,
						"w": 14,
						"h": 21
					},
					"frame": {
						"x": 1998,
						"y": 451,
						"w": 14,
						"h": 21
					}
				},
				{
					"filename": "beticon",
					"rotated": false,
					"trimmed": false,
					"sourceSize": {
						"w": 41,
						"h": 37
					},
					"spriteSourceSize": {
						"x": 0,
						"y": 0,
						"w": 41,
						"h": 37
					},
					"frame": {
						"x": 1998,
						"y": 474,
						"w": 41,
						"h": 37
					}
				},
				{
					"filename": "minitrack",
					"rotated": false,
					"trimmed": false,
					"sourceSize": {
						"w": 254,
						"h": 44
					},
					"spriteSourceSize": {
						"x": 0,
						"y": 0,
						"w": 254,
						"h": 44
					},
					"frame": {
						"x": 1437,
						"y": 382,
						"w": 254,
						"h": 44
					}
				},
				{
					"filename": "minusbet",
					"rotated": false,
					"trimmed": false,
					"sourceSize": {
						"w": 50,
						"h": 50
					},
					"spriteSourceSize": {
						"x": 0,
						"y": 0,
						"w": 50,
						"h": 50
					},
					"frame": {
						"x": 1693,
						"y": 382,
						"w": 50,
						"h": 50
					}
				},
				{
					"filename": "maxitrack",
					"rotated": false,
					"trimmed": false,
					"sourceSize": {
						"w": 250,
						"h": 40
					},
					"spriteSourceSize": {
						"x": 0,
						"y": 0,
						"w": 250,
						"h": 40
					},
					"frame": {
						"x": 1437,
						"y": 428,
						"w": 250,
						"h": 40
					}
				},
				{
					"filename": "plusbet",
					"rotated": false,
					"trimmed": false,
					"sourceSize": {
						"w": 50,
						"h": 50
					},
					"spriteSourceSize": {
						"x": 0,
						"y": 0,
						"w": 50,
						"h": 50
					},
					"frame": {
						"x": 1689,
						"y": 434,
						"w": 50,
						"h": 50
					}
				},
				{
					"filename": "auto_down",
					"rotated": false,
					"trimmed": false,
					"sourceSize": {
						"w": 110,
						"h": 110
					},
					"spriteSourceSize": {
						"x": 0,
						"y": 0,
						"w": 110,
						"h": 110
					},
					"frame": {
						"x": 1741,
						"y": 463,
						"w": 110,
						"h": 110
					}
				},
				{
					"filename": "crashrect",
					"rotated": false,
					"trimmed": false,
					"sourceSize": {
						"w": 220,
						"h": 51
					},
					"spriteSourceSize": {
						"x": 0,
						"y": 0,
						"w": 220,
						"h": 51
					},
					"frame": {
						"x": 1437,
						"y": 470,
						"w": 220,
						"h": 51
					}
				},
				{
					"filename": "orange_number/4",
					"rotated": false,
					"trimmed": false,
					"sourceSize": {
						"w": 20,
						"h": 34
					},
					"spriteSourceSize": {
						"x": 0,
						"y": 0,
						"w": 20,
						"h": 34
					},
					"frame": {
						"x": 1659,
						"y": 470,
						"w": 20,
						"h": 34
					}
				},
				{
					"filename": "orange_number/12",
					"rotated": false,
					"trimmed": false,
					"sourceSize": {
						"w": 68,
						"h": 34
					},
					"spriteSourceSize": {
						"x": 0,
						"y": 0,
						"w": 68,
						"h": 34
					},
					"frame": {
						"x": 1659,
						"y": 506,
						"w": 68,
						"h": 34
					}
				},
				{
					"filename": "symbol/01",
					"rotated": false,
					"trimmed": false,
					"sourceSize": {
						"w": 200,
						"h": 200
					},
					"spriteSourceSize": {
						"x": 0,
						"y": 0,
						"w": 200,
						"h": 200
					},
					"frame": {
						"x": 1437,
						"y": 523,
						"w": 200,
						"h": 200
					}
				},
				{
					"filename": "orange_number/11",
					"rotated": false,
					"trimmed": false,
					"sourceSize": {
						"w": 17,
						"h": 36
					},
					"spriteSourceSize": {
						"x": 0,
						"y": 0,
						"w": 17,
						"h": 36
					},
					"frame": {
						"x": 1639,
						"y": 523,
						"w": 17,
						"h": 36
					}
				},
				{
					"filename": "rules_up",
					"rotated": false,
					"trimmed": false,
					"sourceSize": {
						"w": 90,
						"h": 91
					},
					"spriteSourceSize": {
						"x": 0,
						"y": 0,
						"w": 90,
						"h": 91
					},
					"frame": {
						"x": 1639,
						"y": 561,
						"w": 90,
						"h": 91
					}
				},
				{
					"filename": "symbol/flame",
					"rotated": false,
					"trimmed": false,
					"sourceSize": {
						"w": 120,
						"h": 120
					},
					"spriteSourceSize": {
						"x": 0,
						"y": 0,
						"w": 120,
						"h": 120
					},
					"frame": {
						"x": 1853,
						"y": 513,
						"w": 120,
						"h": 120
					}
				},
				{
					"filename": "auto_up",
					"rotated": false,
					"trimmed": false,
					"sourceSize": {
						"w": 110,
						"h": 110
					},
					"spriteSourceSize": {
						"x": 0,
						"y": 0,
						"w": 110,
						"h": 110
					},
					"frame": {
						"x": 1731,
						"y": 575,
						"w": 110,
						"h": 110
					}
				},
				{
					"filename": "rules_down",
					"rotated": false,
					"trimmed": false,
					"sourceSize": {
						"w": 90,
						"h": 90
					},
					"spriteSourceSize": {
						"x": 0,
						"y": 0,
						"w": 90,
						"h": 90
					},
					"frame": {
						"x": 1639,
						"y": 654,
						"w": 90,
						"h": 90
					}
				},
				{
					"filename": "symbol/02",
					"rotated": false,
					"trimmed": false,
					"sourceSize": {
						"w": 200,
						"h": 200
					},
					"spriteSourceSize": {
						"x": 0,
						"y": 0,
						"w": 200,
						"h": 200
					},
					"frame": {
						"x": 1843,
						"y": 635,
						"w": 200,
						"h": 200
					}
				},
				{
					"filename": "coin_down",
					"rotated": false,
					"trimmed": false,
					"sourceSize": {
						"w": 110,
						"h": 110
					},
					"spriteSourceSize": {
						"x": 0,
						"y": 0,
						"w": 110,
						"h": 110
					},
					"frame": {
						"x": 1731,
						"y": 687,
						"w": 110,
						"h": 110
					}
				},
				{
					"filename": "orange_number/5",
					"rotated": false,
					"trimmed": false,
					"sourceSize": {
						"w": 20,
						"h": 34
					},
					"spriteSourceSize": {
						"x": 0,
						"y": 0,
						"w": 20,
						"h": 34
					},
					"frame": {
						"x": 1975,
						"y": 513,
						"w": 20,
						"h": 34
					}
				},
				{
					"filename": "orange_number/7",
					"rotated": false,
					"trimmed": false,
					"sourceSize": {
						"w": 20,
						"h": 34
					},
					"spriteSourceSize": {
						"x": 0,
						"y": 0,
						"w": 20,
						"h": 34
					},
					"frame": {
						"x": 1997,
						"y": 513,
						"w": 20,
						"h": 34
					}
				},
				{
					"filename": "orange_number/8",
					"rotated": false,
					"trimmed": false,
					"sourceSize": {
						"w": 20,
						"h": 34
					},
					"spriteSourceSize": {
						"x": 0,
						"y": 0,
						"w": 20,
						"h": 34
					},
					"frame": {
						"x": 2019,
						"y": 513,
						"w": 20,
						"h": 34
					}
				},
				{
					"filename": "orange_number/0",
					"rotated": false,
					"trimmed": false,
					"sourceSize": {
						"w": 19,
						"h": 34
					},
					"spriteSourceSize": {
						"x": 0,
						"y": 0,
						"w": 19,
						"h": 34
					},
					"frame": {
						"x": 1975,
						"y": 549,
						"w": 19,
						"h": 34
					}
				},
				{
					"filename": "orange_number/2",
					"rotated": false,
					"trimmed": false,
					"sourceSize": {
						"w": 19,
						"h": 34
					},
					"spriteSourceSize": {
						"x": 0,
						"y": 0,
						"w": 19,
						"h": 34
					},
					"frame": {
						"x": 1975,
						"y": 585,
						"w": 19,
						"h": 34
					}
				},
				{
					"filename": "plus_no",
					"rotated": false,
					"trimmed": false,
					"sourceSize": {
						"w": 20,
						"h": 20
					},
					"spriteSourceSize": {
						"x": 0,
						"y": 0,
						"w": 20,
						"h": 20
					},
					"frame": {
						"x": 1996,
						"y": 549,
						"w": 20,
						"h": 20
					}
				},
				{
					"filename": "plus_up",
					"rotated": false,
					"trimmed": false,
					"sourceSize": {
						"w": 20,
						"h": 20
					},
					"spriteSourceSize": {
						"x": 0,
						"y": 0,
						"w": 20,
						"h": 20
					},
					"frame": {
						"x": 2018,
						"y": 549,
						"w": 20,
						"h": 20
					}
				},
				{
					"filename": "orange_number/6",
					"rotated": false,
					"trimmed": false,
					"sourceSize": {
						"w": 19,
						"h": 34
					},
					"spriteSourceSize": {
						"x": 0,
						"y": 0,
						"w": 19,
						"h": 34
					},
					"frame": {
						"x": 1996,
						"y": 571,
						"w": 19,
						"h": 34
					}
				},
				{
					"filename": "double/5",
					"rotated": false,
					"trimmed": false,
					"sourceSize": {
						"w": 14,
						"h": 21
					},
					"spriteSourceSize": {
						"x": 0,
						"y": 0,
						"w": 14,
						"h": 21
					},
					"frame": {
						"x": 1996,
						"y": 607,
						"w": 14,
						"h": 21
					}
				},
				{
					"filename": "double/6",
					"rotated": false,
					"trimmed": false,
					"sourceSize": {
						"w": 14,
						"h": 21
					},
					"spriteSourceSize": {
						"x": 0,
						"y": 0,
						"w": 14,
						"h": 21
					},
					"frame": {
						"x": 2012,
						"y": 607,
						"w": 14,
						"h": 21
					}
				},
				{
					"filename": "orange_number/9",
					"rotated": false,
					"trimmed": false,
					"sourceSize": {
						"w": 19,
						"h": 34
					},
					"spriteSourceSize": {
						"x": 0,
						"y": 0,
						"w": 19,
						"h": 34
					},
					"frame": {
						"x": 2017,
						"y": 571,
						"w": 19,
						"h": 34
					}
				},
				{
					"filename": "double/7",
					"rotated": false,
					"trimmed": false,
					"sourceSize": {
						"w": 14,
						"h": 21
					},
					"spriteSourceSize": {
						"x": 0,
						"y": 0,
						"w": 14,
						"h": 21
					},
					"frame": {
						"x": 2028,
						"y": 607,
						"w": 14,
						"h": 21
					}
				},
				{
					"filename": "symbol/03",
					"rotated": false,
					"trimmed": false,
					"sourceSize": {
						"w": 200,
						"h": 200
					},
					"spriteSourceSize": {
						"x": 0,
						"y": 0,
						"w": 200,
						"h": 200
					},
					"frame": {
						"x": 1,
						"y": 140,
						"w": 200,
						"h": 200
					}
				},
				{
					"filename": "symbol/04",
					"rotated": false,
					"trimmed": false,
					"sourceSize": {
						"w": 200,
						"h": 200
					},
					"spriteSourceSize": {
						"x": 0,
						"y": 0,
						"w": 200,
						"h": 200
					},
					"frame": {
						"x": 203,
						"y": 140,
						"w": 200,
						"h": 200
					}
				},
				{
					"filename": "symbol/05",
					"rotated": false,
					"trimmed": false,
					"sourceSize": {
						"w": 200,
						"h": 200
					},
					"spriteSourceSize": {
						"x": 0,
						"y": 0,
						"w": 200,
						"h": 200
					},
					"frame": {
						"x": 405,
						"y": 140,
						"w": 200,
						"h": 200
					}
				},
				{
					"filename": "coin_up",
					"rotated": false,
					"trimmed": false,
					"sourceSize": {
						"w": 110,
						"h": 110
					},
					"spriteSourceSize": {
						"x": 0,
						"y": 0,
						"w": 110,
						"h": 110
					},
					"frame": {
						"x": 607,
						"y": 140,
						"w": 110,
						"h": 110
					}
				},
				{
					"filename": "setting_down",
					"rotated": false,
					"trimmed": false,
					"sourceSize": {
						"w": 90,
						"h": 90
					},
					"spriteSourceSize": {
						"x": 0,
						"y": 0,
						"w": 90,
						"h": 90
					},
					"frame": {
						"x": 607,
						"y": 252,
						"w": 90,
						"h": 90
					}
				},
				{
					"filename": "orange_number/1",
					"rotated": false,
					"trimmed": false,
					"sourceSize": {
						"w": 17,
						"h": 34
					},
					"spriteSourceSize": {
						"x": 0,
						"y": 0,
						"w": 17,
						"h": 34
					},
					"frame": {
						"x": 699,
						"y": 252,
						"w": 17,
						"h": 34
					}
				},
				{
					"filename": "orange_number/10",
					"rotated": false,
					"trimmed": false,
					"sourceSize": {
						"w": 17,
						"h": 34
					},
					"spriteSourceSize": {
						"x": 0,
						"y": 0,
						"w": 17,
						"h": 34
					},
					"frame": {
						"x": 699,
						"y": 288,
						"w": 17,
						"h": 34
					}
				},
				{
					"filename": "double/8",
					"rotated": false,
					"trimmed": false,
					"sourceSize": {
						"w": 14,
						"h": 21
					},
					"spriteSourceSize": {
						"x": 0,
						"y": 0,
						"w": 14,
						"h": 21
					},
					"frame": {
						"x": 699,
						"y": 324,
						"w": 14,
						"h": 21
					}
				},
				{
					"filename": "symbol/06",
					"rotated": false,
					"trimmed": false,
					"sourceSize": {
						"w": 200,
						"h": 200
					},
					"spriteSourceSize": {
						"x": 0,
						"y": 0,
						"w": 200,
						"h": 200
					},
					"frame": {
						"x": 1,
						"y": 342,
						"w": 200,
						"h": 200
					}
				},
				{
					"filename": "symbol/07",
					"rotated": false,
					"trimmed": false,
					"sourceSize": {
						"w": 200,
						"h": 200
					},
					"spriteSourceSize": {
						"x": 0,
						"y": 0,
						"w": 200,
						"h": 200
					},
					"frame": {
						"x": 203,
						"y": 342,
						"w": 200,
						"h": 200
					}
				},
				{
					"filename": "symbol/08",
					"rotated": false,
					"trimmed": false,
					"sourceSize": {
						"w": 200,
						"h": 200
					},
					"spriteSourceSize": {
						"x": 0,
						"y": 0,
						"w": 200,
						"h": 200
					},
					"frame": {
						"x": 405,
						"y": 342,
						"w": 200,
						"h": 200
					}
				},
				{
					"filename": "double/9",
					"rotated": false,
					"trimmed": false,
					"sourceSize": {
						"w": 14,
						"h": 21
					},
					"spriteSourceSize": {
						"x": 0,
						"y": 0,
						"w": 14,
						"h": 21
					},
					"frame": {
						"x": 607,
						"y": 344,
						"w": 14,
						"h": 21
					}
				},
				{
					"filename": "symbol/09",
					"rotated": false,
					"trimmed": false,
					"sourceSize": {
						"w": 200,
						"h": 200
					},
					"spriteSourceSize": {
						"x": 0,
						"y": 0,
						"w": 200,
						"h": 200
					},
					"frame": {
						"x": 607,
						"y": 539,
						"w": 200,
						"h": 200
					}
				},
				{
					"filename": "symbol/10",
					"rotated": false,
					"trimmed": false,
					"sourceSize": {
						"w": 200,
						"h": 200
					},
					"spriteSourceSize": {
						"x": 0,
						"y": 0,
						"w": 200,
						"h": 200
					},
					"frame": {
						"x": 1,
						"y": 544,
						"w": 200,
						"h": 200
					}
				},
				{
					"filename": "symbol/11",
					"rotated": false,
					"trimmed": false,
					"sourceSize": {
						"w": 200,
						"h": 200
					},
					"spriteSourceSize": {
						"x": 0,
						"y": 0,
						"w": 200,
						"h": 200
					},
					"frame": {
						"x": 203,
						"y": 544,
						"w": 200,
						"h": 200
					}
				},
				{
					"filename": "symbol/12",
					"rotated": false,
					"trimmed": false,
					"sourceSize": {
						"w": 200,
						"h": 200
					},
					"spriteSourceSize": {
						"x": 0,
						"y": 0,
						"w": 200,
						"h": 200
					},
					"frame": {
						"x": 405,
						"y": 544,
						"w": 200,
						"h": 200
					}
				},
				{
					"filename": "symbol/13",
					"rotated": false,
					"trimmed": false,
					"sourceSize": {
						"w": 200,
						"h": 200
					},
					"spriteSourceSize": {
						"x": 0,
						"y": 0,
						"w": 200,
						"h": 200
					},
					"frame": {
						"x": 809,
						"y": 539,
						"w": 200,
						"h": 200
					}
				},
				{
					"filename": "symbol/14",
					"rotated": false,
					"trimmed": false,
					"sourceSize": {
						"w": 200,
						"h": 200
					},
					"spriteSourceSize": {
						"x": 0,
						"y": 0,
						"w": 200,
						"h": 200
					},
					"frame": {
						"x": 1011,
						"y": 539,
						"w": 200,
						"h": 200
					}
				},
				{
					"filename": "metal",
					"rotated": false,
					"trimmed": false,
					"sourceSize": {
						"w": 200,
						"h": 83
					},
					"spriteSourceSize": {
						"x": 0,
						"y": 0,
						"w": 200,
						"h": 83
					},
					"frame": {
						"x": 1213,
						"y": 539,
						"w": 200,
						"h": 83
					}
				}
			]
		}
	],
	"meta": {
		"app": "http://free-tex-packer.com",
		"version": "0.6.7"
	}
}